"","trans","ISO","velocity","DateTime","BEAVER","LAGOON","VANCE","GAL","TBES6.INFLOW","TBES6.DIVERSION","BESDS","CRE1","BES2b","TBES2.DIVERSION","TBES2.INFLOW","BES1","DUT2","TDUT2.INFLOW","TDUT2.DIVERSION","LAW","DUT1","photo2","vf","photo","Easting","Northing","Latitude","Longitude"
"1","SHTR02",2020-08-10 12:00:00,0.42,"2020-08-10T12:00:00Z",1.53132142134792,1.31766675948354,0.297308862422183,0.0274042774792849,0,0.0189729388599189,0.48766675948354,0.213886044007856,0.204844778926901,0.209488945625578,0,0.451659808930109,0.83,0.176580346625458,0.066,0.0396581880543522,0.532454155,626,0.485494044514418,"DSCN7626.txt",360283,5568343,50.250702,-118.959807
"2","SHTR05",2020-08-10 16:00:00,0.19,"2020-08-10T16:00:00Z",1.57349289160113,1.10880059638381,0.291819681785866,0.0268983153358559,0,0.0195683436065273,0.403477844175991,0.21217438975951,0.191303454416481,0.209488945625578,0,0.436788790265073,0.690503161093644,0.142691831250288,0.066,0.0320471648498166,0.46934358,662,0.380192504793218,"DSCN7662.txt",360397,5568390,50.251152,-118.958229
"3","SHTR08",2020-08-11 10:00:00,0.38,"2020-08-11T10:00:00Z",1.38712488490686,1.11415090593374,0.288905633649815,0.0266297145849138,0,0.0246919020113199,0.399118278083163,0.209327443371664,0.189790834711499,0.201863343757387,0,0.412054243020541,0.68089709875094,0.166374170391176,0.066,0.0373659824711706,0.478950265,693,0.200582235537718,"DSCN7693.txt",355693,5565531,50.224323,-119.023079
"4","SHTR14",2020-08-11 14:00:00,0.29,"2020-08-11T14:00:00Z",1.40896264413072,1.00614117282047,0.281810749457476,0.0259757476176791,0,0.0255939157314502,0.391945490067417,0.209341390038172,0.182604100029245,0.197785076068856,0,0.412175413016266,0.602479729846524,0.156111820953784,0.066,0.0350611609457557,0.576036896,729,0.714345289312192,"DSCN7729.txt",361645,5571453,50.278976,-118.941849
"5","SHTR20",2020-08-12 09:00:00,0.08,"2020-08-12T09:00:00Z",1.3533914162377,1.11902999602517,0.274246876227502,0.0252785518491991,0.0337394954237384,0.0312886118456292,0.378383118103653,0.204500114278718,0.173883003824935,0.197229395065474,0,0.370113938129608,0.671136288814129,0.172483867101612,0.066,0.0387381595323668,0.51674093,744,0.276540794923489,"DSCN7744.txt",360337,5567506,50.243191,-118.95874
"6","SHTR21",2020-08-12 10:00:00,0.13,"2020-08-12T10:00:00Z",1.36459245431275,1.11347089155684,0.274199215380691,0.0252741587374019,0.0179133255199144,0.0311756283994174,0.377110547310233,0.205883813434882,0.171226733875351,0.194903418584508,0,0.38213565104155,0.697745310220814,0.168139893308305,0.066,0.0377625462611824,0.484943634,758,0.854681860893729,"DSCN7758.txt",360330,5567571,50.243774,-118.958862
"7","SHTR22",2020-08-12 11:00:00,0.07,"2020-08-12T11:00:00Z",1.36013256925388,1.10682442601082,0.272008120197904,0.0250721957690483,0.0137771862365499,0.0308256719957022,0.368286423598211,0.206551340019285,0.161735083578926,0.193235890328289,0,0.38793518696164,0.714085751324858,0.153968219084258,0.066,0.0345797293046929,0.456507959,767,0.472334715190866,"DSCN7767.txt",360337,5567677,50.244728,-118.958801
"8","SHTR23",2020-08-12 11:00:00,0.09,"2020-08-12T11:00:00Z",1.36013256925388,1.10682442601082,0.272008120197904,0.0250721957690483,0.0137771862365499,0.0308256719957022,0.368286423598211,0.206551340019285,0.161735083578926,0.193235890328289,0,0.38793518696164,0.714085751324858,0.153968219084258,0.066,0.0345797293046929,0.456507959,776,0.688169818803723,"DSCN7776.txt",360416,5567748,50.245384,-118.957726
"9","SHTR24",2020-08-12 12:00:00,0.08,"2020-08-12T12:00:00Z",1.34187879661287,1.09309290911662,0.271136242386642,0.024991830921283,0,0.030449343551513,0.363686033626488,0.207337102513275,0.156348931113213,0.192636358566375,0,0.394761967969377,0.700540263918149,0.146087916352095,0.066,0.032809891756802,0.431961695,787,0.741630798882504,"DSCN7787.txt",360476,5567790,50.245777,-118.956902
"10","SHTR29",2020-08-12 14:00:00,0.13,"2020-08-12T14:00:00Z",1.33568731336845,0.987709334675376,0.267924720367164,0.0246958106821431,0,0.0300291596018548,0.363564723388394,0.206275941911258,0.157288781477135,0.190556125381515,0,0.385542501401029,0.672120411100602,0.135166329813873,0.066,0.0303570121410235,0.423921258,819,0.329253241667109,"DSCN7819.txt",359067,5565524,50.225075,-118.975807
"11","SHTR34",2020-08-12 17:00:00,0.17,"2020-08-12T17:00:00Z",1.34017884948516,0.886035765357117,0.261923763984582,0.0241426758966222,0,0.0302223477822507,0.355613816922631,0.204713055326144,0.150900761596487,0.190556125381515,0,0.371963990670237,0.555938333314669,0.13508519917069,0.066,0.0303387910061926,0.461442939,875,0.639196906458751,"DSCN7875.txt",357557,5564515,50.215645,-118.996582
"12","SHTR41",2020-08-13 12:00:00,0.42,"2020-08-13T12:00:00Z",1.23733156639576,1.03671029573273,0.258614457275736,0.0238376424086379,0.0115180841879451,0.034315813999824,0.364052691544256,0.205565096650092,0.158487594894164,0.180018143664542,0,0.379366608602018,0.647632210960949,0.152710904594481,0.066,0.0342973489864302,0.467291104,916,0.466191716006476,"DSCN7916.txt",366802,5573518,50.298725,-118.870239
"13","SHTR49",2020-08-13 16:00:00,0.68,"2020-08-13T16:00:00Z",1.24509250060136,0.911425125358772,0.252179677704537,0.0232445202142623,0,0.035368810042687,0.347467814104846,0.20411020108652,0.143357613018327,0.180018143664542,0,0.366726334374629,0.596864257765711,0.140084746944743,0.066,0.031461639667435,0.475343117,966,0.581280093913629,"DSCN7966.txt",362559,5572299,50.286793,-118.929337
"14","SHTR55",2020-08-14 10:00:00,0.24,"2020-08-14T10:00:00Z",1.24540855415475,1.01728315177885,0.254545481424664,0.0234625868439607,0.00999949701705344,0.0398291590237824,0.364487394141775,0.202075682054843,0.162411712086932,0.184152344724766,0,0.349050235055113,0.628420566607887,0.152269060978146,0.066,0.0341981153086055,0.443833876,10,0.723693222043687,"DSCN8010.txt",359349,5567490,50.242813,-118.972588
"15","SHTR61",2020-08-14 12:00:00,0.18,"2020-08-14T12:00:00Z",1.23860379889872,0.988717226153973,0.249201739386381,0.0229700304216537,0.0116842901267511,0.0405146272814359,0.357585860277175,0.204157885368157,0.153427974909019,0.195835519952764,0,0.367140620053489,0.623661230779893,0.14506138858718,0.066,0.0325793438395393,0.422998478,42,0.318048654585212,"DSCN8042.txt",358337,5566660,50.235111,-118.986458
